…
### DESeq

``` r
metadata_balmoral <- subset(metadata, site=="Balmoral")
dds_balmoral <- DESeqDataSetFromMatrix(countData = host_genome_counts %>%
                                         select(all_of(rownames(metadata_balmoral))),
                                       colData = metadata_balmoral,
                                       design =  ~ treatment)
dds_balmoral <- DESeq(dds_balmoral, test = "LRT", reduced = ~1)
res_balmoral <- results(dds_balmoral) %>% tidy() %>% dplyr::rename("Host" = "gene")
res_balmoral
```

    ## # A tibble: 459 × 7
    ##    Host               baseMean estimate stderror statistic  p.value p.adjusted
    ##    <chr>                 <dbl>    <dbl>    <dbl>     <dbl>    <dbl>      <dbl>
    ##  1 CRr3G3H3I__bin_97    48639.   -1.42     0.410    66.5   3.55e-15   6.08e-14
    ##  2 MGr2D2E2F__bin_102     881.   -1.07     0.586     3.25  1.97e- 1   2.41e- 1
    ##  3 MGr2D2E2F__bin_107     156.   -0.160    0.577    12.2   2.30e- 3   4.71e- 3
    ##  4 BOr1A1B1C__bin_57    41881.    1.27     1.12      8.32  1.56e- 2   2.55e- 2
    ##  5 CRr2D2E2F__bin_21    44463.    0.870    0.735     3.48  1.76e- 1   2.17e- 1
    ##  6 SEr2D2E2F__bin_42     1965.    0.482    0.344     7.98  1.85e- 2   2.95e- 2
    ##  7 LASYr2D2E2F__bin_2    4669.    0.625    0.542     1.90  3.87e- 1   4.39e- 1
    ##  8 SEr3G3H3I__bin_90    10259.    0.281    0.585     0.249 8.83e- 1   8.93e- 1
    ##  9 CRr1A1B1C__bin_11   212761.    3.41     1.06     10.8   4.60e- 3   8.90e- 3
    ## 10 CRr1A1B1C__bin_138   71309.   -0.693    0.543     9.34  9.39e- 3   1.66e- 2
    ## # ℹ 449 more rows
…
### DESeq

``` r
metadata_bowness <- subset(metadata, site=="Bowness")
dds_bowness <- DESeqDataSetFromMatrix(countData = host_genome_counts %>%
                                         select(all_of(rownames(metadata_bowness))),
                                       colData = metadata_bowness,
                                       design =  ~ treatment)
dds_bowness <- DESeq(dds_bowness, test = "LRT", reduced = ~1)
res_bowness <- results(dds_bowness) %>% tidy() %>% dplyr::rename("Host" = "gene")
res_bowness
```

    ## # A tibble: 459 × 7
    ##    Host               baseMean estimate stderror statistic  p.value p.adjusted
    ##    <chr>                 <dbl>    <dbl>    <dbl>     <dbl>    <dbl>      <dbl>
    ##  1 CRr3G3H3I__bin_97   39042.  -1.18       0.281    18.8   8.29e- 5   2.49e- 4
    ##  2 MGr2D2E2F__bin_102   9156.   5.25       0.441   101.    1.01e-22   7.63e-21
    ##  3 MGr2D2E2F__bin_107     73.9  1.07       0.420     8.39  1.51e- 2   2.52e- 2
    ##  4 BOr1A1B1C__bin_57  312879.  -2.07       0.779     6.90  3.18e- 2   4.82e- 2
    ##  5 CRr2D2E2F__bin_21   89322.  -0.00363    0.519     0.661 7.19e- 1   7.47e- 1
    ##  6 SEr2D2E2F__bin_42    4014.   0.0508     0.317     0.892 6.40e- 1   6.75e- 1
    ##  7 LASYr2D2E2F__bin_2  36536.  -3.12       0.649    22.9   1.05e- 5   4.17e- 5
    ##  8 SEr3G3H3I__bin_90   10860.   0.894      0.539     9.79  7.47e- 3   1.38e- 2
    ##  9 CRr1A1B1C__bin_11  490143.   0.216      0.530     5.72  5.73e- 2   8.23e- 2
    ## 10 CRr1A1B1C__bin_138  64234.  -2.01       0.535    13.3   1.32e- 3   2.89e- 3
    ## # ℹ 449 more rows
…
### DESeq

``` r
metadata_crocach <- subset(metadata, site=="Crocach")
dds_crocach <- DESeqDataSetFromMatrix(countData = host_genome_counts %>%
                                         select(all_of(rownames(metadata_crocach))),
                                       colData = metadata_crocach,
                                       design =  ~ treatment)
dds_crocach <- DESeq(dds_crocach, test = "LRT", reduced = ~1)
res_crocach <- results(dds_crocach) %>% tidy() %>% dplyr::rename("Host" = "gene")
res_crocach
```

    ## # A tibble: 459 × 7
    ##    Host               baseMean estimate stderror statistic   p.value p.adjusted
    ##    <chr>                 <dbl>    <dbl>    <dbl>     <dbl>     <dbl>      <dbl>
    ##  1 CRr3G3H3I__bin_97   184105.  -3.62      0.777    20.1   0.0000421  0.000191 
    ##  2 MGr2D2E2F__bin_102    5557.  -1.65      0.613     7.51  0.0235     0.0431   
    ##  3 MGr2D2E2F__bin_107     265.   0.961     0.383     7.30  0.0260     0.0460   
    ##  4 BOr1A1B1C__bin_57    35992.  -0.0158    1.19      0.300 0.861      0.876    
    ##  5 CRr2D2E2F__bin_21   907560.  -1.46      0.589    18.1   0.000116   0.000480 
    ##  6 SEr2D2E2F__bin_42    12588.   2.21      0.549    22.9   0.0000107  0.0000554
    ##  7 LASYr2D2E2F__bin_2    1696.   1.35      0.479     8.49  0.0143     0.0285   
    ##  8 SEr3G3H3I__bin_90    53274.   0.781     0.782     7.67  0.0216     0.0405   
    ##  9 CRr1A1B1C__bin_11   542219.   0.205     0.709     4.76  0.0926     0.130    
    ## 10 CRr1A1B1C__bin_138  142217.  -1.04      0.648    10.6   0.00500    0.0116   
    ## # ℹ 449 more rows
…
### DESeq

``` r
metadata_langwell <- subset(metadata, site=="Langwell")
dds_langwell <- DESeqDataSetFromMatrix(countData = host_genome_counts %>%
                                         select(all_of(rownames(metadata_langwell))),
                                       colData = metadata_langwell,
                                       design =  ~ treatment)
dds_langwell <- DESeq(dds_langwell, test = "LRT", reduced = ~1)
res_langwell <- results(dds_langwell) %>% tidy() %>% dplyr::rename("Host" = "gene")
res_langwell
```

    ## # A tibble: 459 × 7
    ##    Host               baseMean estimate stderror statistic  p.value p.adjusted
    ##    <chr>                 <dbl>    <dbl>    <dbl>     <dbl>    <dbl>      <dbl>
    ##  1 CRr3G3H3I__bin_97    13579.  -1.84      0.529     11.6  3.00e- 3   4.46e- 3
    ##  2 MGr2D2E2F__bin_102   41833.   2.78      0.888     18.9  7.74e- 5   1.43e- 4
    ##  3 MGr2D2E2F__bin_107    3078.   2.31      0.705     76.8  2.15e-17   1.71e-16
    ##  4 BOr1A1B1C__bin_57    15276.   2.01      1.60       6.83 3.29e- 2   4.07e- 2
    ##  5 CRr2D2E2F__bin_21    59049.   0.0871    0.493     20.6  3.42e- 5   6.84e- 5
    ##  6 SEr2D2E2F__bin_42     3769.   1.14      0.513     16.5  2.68e- 4   4.64e- 4
    ##  7 LASYr2D2E2F__bin_2   17098.  -2.32      0.913     12.2  2.26e- 3   3.38e- 3
    ##  8 SEr3G3H3I__bin_90    17947.   0.950     0.337     22.7  1.18e- 5   2.54e- 5
    ##  9 CRr1A1B1C__bin_11  3150934.  -0.465     0.618     14.5  7.21e- 4   1.17e- 3
    ## 10 CRr1A1B1C__bin_138   34715.  -1.34      0.489      7.59 2.25e- 2   2.86e- 2
    ## # ℹ 449 more rows
…
### DESeq

``` r
metadata_migneint <- subset(metadata, site=="Migneint")
dds_migneint <- DESeqDataSetFromMatrix(countData = host_genome_counts %>%
                                         select(all_of(rownames(metadata_migneint))),
                                       colData = metadata_migneint,
                                       design =  ~ treatment)
dds_migneint <- DESeq(dds_migneint, test = "LRT", reduced = ~1)
res_migneint <- results(dds_migneint) %>% tidy() %>% dplyr::rename("Host" = "gene")
res_migneint
```

    ## # A tibble: 459 × 7
    ##    Host               baseMean estimate stderror statistic  p.value p.adjusted
    ##    <chr>                 <dbl>    <dbl>    <dbl>     <dbl>    <dbl>      <dbl>
    ##  1 CRr3G3H3I__bin_97    52100.    0.428    0.728      1.00 0.607       0.737  
    ##  2 MGr2D2E2F__bin_102   81905.    1.15     0.786      3.04 0.218       0.408  
    ##  3 MGr2D2E2F__bin_107  179251.    6.31     1.62       9.52 0.00859     0.0463 
    ##  4 BOr1A1B1C__bin_57     2095.    0.297    0.967      6.85 0.0325      0.116  
    ##  5 CRr2D2E2F__bin_21    84414.   -1.52     0.705      7.59 0.0224      0.0918 
    ##  6 SEr2D2E2F__bin_42    47078.   -1.21     0.747     16.8  0.000227    0.00296
    ##  7 LASYr2D2E2F__bin_2     571.   -0.221    0.279      3.65 0.161       0.339  
    ##  8 SEr3G3H3I__bin_90    45273.    0.273    0.827      1.09 0.580       0.718  
    ##  9 CRr1A1B1C__bin_11  2860431.    0.418    0.429      1.05 0.590       0.722  
    ## 10 CRr1A1B1C__bin_138   32821.   -0.223    0.514     11.3  0.00346     0.0231 
    ## # ℹ 449 more rows
…
### DESeq

``` r
metadata_moor_house <- subset(metadata, site=="Moor_House")
dds_moor_house <- DESeqDataSetFromMatrix(countData = host_genome_counts %>%
                                         select(all_of(rownames(metadata_moor_house))),
                                       colData = metadata_moor_house,
                                       design =  ~ treatment)
dds_moor_house <- DESeq(dds_moor_house, test = "LRT", reduced = ~1)
res_moor_house <- results(dds_moor_house) %>% tidy() %>% dplyr::rename("Host" = "gene")
res_moor_house
```

    ## # A tibble: 459 × 7
    ##    Host               baseMean estimate stderror statistic    p.value p.adjusted
    ##    <chr>                 <dbl>    <dbl>    <dbl>     <dbl>      <dbl>      <dbl>
    ##  1 CRr3G3H3I__bin_97   101126.  -1.11      1.08    1.04       5.95e-1 0.640     
    ##  2 MGr2D2E2F__bin_102    5471.  -3.42      0.835  15.0        5.64e-4 0.00124   
    ##  3 MGr2D2E2F__bin_107     173.  -0.468     0.409   1.90       3.88e-1 0.442     
    ##  4 BOr1A1B1C__bin_57    25342.  -2.44      1.05    7.18       2.76e-2 0.0407    
    ##  5 CRr2D2E2F__bin_21   539088.  -3.12      0.928  23.0        1.02e-5 0.0000382 
    ##  6 SEr2D2E2F__bin_42     7955.   1.66      0.938   4.01       1.35e-1 0.175     
    ##  7 LASYr2D2E2F__bin_2    4136.   2.59      0.643  27.8        9.07e-7 0.00000457
    ##  8 SEr3G3H3I__bin_90    15418.  -0.0116    0.577   0.00719    9.96e-1 0.999     
    ##  9 CRr1A1B1C__bin_11  1650241.   1.12      0.779   6.28       4.33e-2 0.0614    
    ## 10 CRr1A1B1C__bin_138  110132.   0.137     0.682  12.1        2.35e-3 0.00446   
    ## # ℹ 449 more rows
…
### DESeq

``` r
metadata_stean <- subset(metadata, site=="Stean")
dds_stean <- DESeqDataSetFromMatrix(countData = host_genome_counts %>%
                                         select(all_of(rownames(metadata_stean))),
                                       colData = metadata_stean,
                                       design =  ~ treatment)
dds_stean <- DESeq(dds_stean, test = "LRT", reduced = ~1)
res_stean <- results(dds_stean) %>% tidy() %>% dplyr::rename("Host" = "gene")
res_stean
```

    ## # A tibble: 459 × 7
    ##    Host               baseMean estimate stderror statistic   p.value p.adjusted
    ##    <chr>                 <dbl>    <dbl>    <dbl>     <dbl>     <dbl>      <dbl>
    ##  1 CRr3G3H3I__bin_97    12858.    1.83     0.700    6.43    0.0112      0.0467 
    ##  2 MGr2D2E2F__bin_102    5401.   -1.49     0.728    3.99    0.0458      0.135  
    ##  3 MGr2D2E2F__bin_107     337.   -1.49     0.594    6.01    0.0142      0.0552 
    ##  4 BOr1A1B1C__bin_57    45837.    0.372    1.45     0.0662  0.797       0.870  
    ##  5 CRr2D2E2F__bin_21   253458.    0.994    1.08     0.833   0.361       0.541  
    ##  6 SEr2D2E2F__bin_42   111146.    1.98     0.688    7.69    0.00555     0.0271 
    ##  7 LASYr2D2E2F__bin_2   25099.    5.19     1.18    13.6     0.000223    0.00212
    ##  8 SEr3G3H3I__bin_90   274930.    0.727    0.810    0.796   0.372       0.549  
    ##  9 CRr1A1B1C__bin_11   457391.   -4.77     1.62     6.30   NA          NA      
    ## 10 CRr1A1B1C__bin_138   65583.    1.06     0.940    1.25    0.264       0.429  
    ## # ℹ 449 more rows
…
