…
### DESeq

``` r
metadata_balmoral <- subset(metadata, site=="Balmoral")
dds_balmoral <- DESeqDataSetFromMatrix(countData = virus_genome_counts %>%
                                         select(all_of(rownames(metadata_balmoral))),
                                       colData = metadata_balmoral,
                                       design =  ~ treatment)
dds_balmoral <- DESeq(dds_balmoral, test = "LRT", reduced = ~1)
res_balmoral <- results(dds_balmoral) %>% tidy() %>% dplyr::rename("Virus" = "gene")
res_balmoral
```

    ## # A tibble: 1,548 × 7
    ##    Virus                baseMean estimate stderror statistic  p.value p.adjusted
    ##    <chr>                   <dbl>    <dbl>    <dbl>     <dbl>    <dbl>      <dbl>
    ##  1 BAr1A1B1C_vRhyme_un…  1371.     1.55      0.826      9.85  7.26e-3    2.09e-2
    ##  2 LASCr2D2E2F_vRhyme_…    38.6   -0.368     0.753      5.05  8.01e-2    1.39e-1
    ##  3 MGr2D2E2F_vRhyme_un…    26.8   -0.0751    0.858     31.0   1.85e-7    1.68e-6
    ##  4 SEr3G3H3I_vRhyme_un…     3.17  -0.807     1.05       1.08  5.83e-1    6.59e-1
    ##  5 LASCr2D2E2F_vRhyme_…   620.     7.79      1.26      31.4   1.50e-7    1.40e-6
    ##  6 LASCr2D2E2F_vRhyme_…    13.9   -0.0914    0.675      4.75  9.30e-2    1.55e-1
    ##  7 BAr3G3H3I_vRhyme_un…   137.    -5.48      1.98      11.4  NA         NA      
    ##  8 MGr1A1B1C_vRhyme_un…     1.70  -3.85      1.68       7.74  2.09e-2    4.97e-2
    ##  9 SEr3G3H3I_vRhyme_un…    26.6   -0.989     0.947     19.5   5.79e-5    3.19e-4
    ## 10 MGr1A1B1C_vRhyme_un…    15.9   -0.292     0.640     14.3   8.02e-4    3.16e-3
    ## # ℹ 1,538 more rows
…
### DESeq

``` r
metadata_bowness <- subset(metadata, site=="Bowness")
dds_bowness <- DESeqDataSetFromMatrix(countData = virus_genome_counts %>%
                                         select(all_of(rownames(metadata_bowness))),
                                       colData = metadata_bowness,
                                       design =  ~ treatment)
dds_bowness <- DESeq(dds_bowness, test = "LRT", reduced = ~1)
res_bowness <- results(dds_bowness) %>% tidy() %>% dplyr::rename("Virus" = "gene")
res_bowness
```

    ## # A tibble: 1,548 × 7
    ##    Virus                baseMean estimate stderror statistic  p.value p.adjusted
    ##    <chr>                   <dbl>    <dbl>    <dbl>     <dbl>    <dbl>      <dbl>
    ##  1 BAr1A1B1C_vRhyme_un…  235.       0.264    0.450     0.571 7.52e- 1   8.45e- 1
    ##  2 LASCr2D2E2F_vRhyme_…   16.8     -0.442    0.678     0.542 7.63e- 1   8.54e- 1
    ##  3 MGr2D2E2F_vRhyme_un…    4.71    -0.517    0.955     0.786 6.75e- 1   7.89e- 1
    ##  4 SEr3G3H3I_vRhyme_un…    6.81     0.179    0.913     0.477 7.88e- 1   8.64e- 1
    ##  5 LASCr2D2E2F_vRhyme_…  652.      -2.36     0.712    10.7   4.76e- 3   1.92e- 2
    ##  6 LASCr2D2E2F_vRhyme_…  310.      -6.37     0.681   114.    2.02e-25   7.00e-23
    ##  7 BAr3G3H3I_vRhyme_un…   12.5      0.507    0.799     3.68  1.59e- 1   2.97e- 1
    ##  8 MGr1A1B1C_vRhyme_un…    0.625    1.99     1.97      1.75  4.17e- 1  NA       
    ##  9 SEr3G3H3I_vRhyme_un…    5.89     0.777    0.765     1.06  5.87e- 1   7.12e- 1
    ## 10 MGr1A1B1C_vRhyme_un…   20.1     -0.755    0.482     5.73  5.71e- 2   1.37e- 1
    ## # ℹ 1,538 more rows
…
### DESeq

``` r
metadata_crocach <- subset(metadata, site=="Crocach")
dds_crocach <- DESeqDataSetFromMatrix(countData = virus_genome_counts %>%
                                         select(all_of(rownames(metadata_crocach))),
                                       colData = metadata_crocach,
                                       design =  ~ treatment)
dds_crocach <- DESeq(dds_crocach, test = "LRT", reduced = ~1)
res_crocach <- results(dds_crocach) %>% tidy() %>% dplyr::rename("Virus" = "gene")
res_crocach
```

    ## # A tibble: 1,548 × 7
    ##    Virus                baseMean estimate stderror statistic  p.value p.adjusted
    ##    <chr>                   <dbl>    <dbl>    <dbl>     <dbl>    <dbl>      <dbl>
    ##  1 BAr1A1B1C_vRhyme_un…  1276.     -0.113    0.403     0.914 6.33e- 1   7.44e- 1
    ##  2 LASCr2D2E2F_vRhyme_…   258.      1.13     0.635    16.0   3.43e- 4   1.54e- 3
    ##  3 MGr2D2E2F_vRhyme_un…    17.2     1.48     0.722     6.89  3.18e- 2   7.35e- 2
    ##  4 SEr3G3H3I_vRhyme_un…     3.58    0.897    0.977     0.875 6.46e- 1  NA       
    ##  5 LASCr2D2E2F_vRhyme_…   553.     -1.45     1.06     12.5   1.95e- 3   7.06e- 3
    ##  6 LASCr2D2E2F_vRhyme_…    76.8    -3.90     0.856    20.1   4.29e- 5   2.42e- 4
    ##  7 BAr3G3H3I_vRhyme_un…     5.95   -1.26     0.793     2.59  2.74e- 1   4.15e- 1
    ##  8 MGr1A1B1C_vRhyme_un…   271.    -10.2      1.42     80.2   3.85e-18   3.55e-16
    ##  9 SEr3G3H3I_vRhyme_un…    17.0     2.94     0.772    17.3   1.78e- 4   8.56e- 4
    ## 10 MGr1A1B1C_vRhyme_un…    17.4     0.354    0.566     1.12  5.71e- 1   6.93e- 1
    ## # ℹ 1,538 more rows
…
### DESeq

``` r
metadata_langwell <- subset(metadata, site=="Langwell")
dds_langwell <- DESeqDataSetFromMatrix(countData = virus_genome_counts %>%
                                         select(all_of(rownames(metadata_langwell))),
                                       colData = metadata_langwell,
                                       design =  ~ treatment)
dds_langwell <- DESeq(dds_langwell, test = "LRT", reduced = ~1)
res_langwell <- results(dds_langwell) %>% tidy() %>% dplyr::rename("Virus" = "gene")
res_langwell
```

    ## # A tibble: 1,548 × 7
    ##    Virus               baseMean estimate stderror statistic   p.value p.adjusted
    ##    <chr>                  <dbl>    <dbl>    <dbl>     <dbl>     <dbl>      <dbl>
    ##  1 BAr1A1B1C_vRhyme_u…   711.     0.471     0.647    11.7    2.91e- 3   5.76e- 3
    ##  2 LASCr2D2E2F_vRhyme…   432.     5.77      0.567    77.3    1.63e-17   2.60e-16
    ##  3 MGr2D2E2F_vRhyme_u…    43.0    0.919     1.25     28.3   NA         NA       
    ##  4 SEr3G3H3I_vRhyme_u…     3.57  -0.641     0.917     0.606  7.39e- 1   7.82e- 1
    ##  5 LASCr2D2E2F_vRhyme…   311.    -2.80      1.10     22.3    1.44e- 5   4.36e- 5
    ##  6 LASCr2D2E2F_vRhyme…   807.     0.442     0.615    55.4    9.25e-13   7.78e-12
    ##  7 BAr3G3H3I_vRhyme_u…    15.9    0.315     0.765    18.0    1.24e- 4   3.22e- 4
    ##  8 MGr1A1B1C_vRhyme_u…     2.09  -1.71      1.26      2.04   3.61e- 1  NA       
    ##  9 SEr3G3H3I_vRhyme_u…     5.01  -1.53      0.915     2.93   2.31e- 1   2.97e- 1
    ## 10 MGr1A1B1C_vRhyme_u…   941.     0.0680    0.815   102.     8.33e-23   2.87e-21
    ## # ℹ 1,538 more rows
…
### DESeq

``` r
metadata_migneint <- subset(metadata, site=="Migneint")
dds_migneint <- DESeqDataSetFromMatrix(countData = virus_genome_counts %>%
                                         select(all_of(rownames(metadata_migneint))),
                                       colData = metadata_migneint,
                                       design =  ~ treatment)
dds_migneint <- DESeq(dds_migneint, test = "LRT", reduced = ~1)
res_migneint <- results(dds_migneint) %>% tidy() %>% dplyr::rename("Virus" = "gene")
res_migneint
```

    ## # A tibble: 1,548 × 7
    ##    Virus               baseMean estimate stderror statistic   p.value p.adjusted
    ##    <chr>                  <dbl>    <dbl>    <dbl>     <dbl>     <dbl>      <dbl>
    ##  1 BAr1A1B1C_vRhyme_u…   694.     1.72      0.834      5.50 NA         NA       
    ##  2 LASCr2D2E2F_vRhyme…   191.    -0.0725    0.542      2.48  2.89e- 1   4.87e- 1
    ##  3 MGr2D2E2F_vRhyme_u…   330.     0.192     0.748     10.9   4.29e- 3   2.16e- 2
    ##  4 SEr3G3H3I_vRhyme_u…     3.36  -2.76      1.23       6.47  3.94e- 2   1.18e- 1
    ##  5 LASCr2D2E2F_vRhyme…    12.4   -1.37      0.750      6.94  3.12e- 2   9.96e- 2
    ##  6 LASCr2D2E2F_vRhyme…   120.     1.08      0.589     55.6   8.42e-13   9.35e-11
    ##  7 BAr3G3H3I_vRhyme_u…     5.63  -1.26      0.747      5.57  6.17e- 2   1.66e- 1
    ##  8 MGr1A1B1C_vRhyme_u…   262.     0.805     0.776     13.1   1.45e- 3   9.46e- 3
    ##  9 SEr3G3H3I_vRhyme_u…     7.47  -0.141     0.659      1.30  5.21e- 1   6.96e- 1
    ## 10 MGr1A1B1C_vRhyme_u…  2022.     1.64      1.51      25.2  NA         NA       
    ## # ℹ 1,538 more rows
…
### DESeq

``` r
metadata_moor_house <- subset(metadata, site=="Moor_House")
dds_moor_house <- DESeqDataSetFromMatrix(countData = virus_genome_counts %>%
                                         select(all_of(rownames(metadata_moor_house))),
                                       colData = metadata_moor_house,
                                       design =  ~ treatment)
dds_moor_house <- DESeq(dds_moor_house, test = "LRT", reduced = ~1)
res_moor_house <- results(dds_moor_house) %>% tidy() %>% dplyr::rename("Virus" = "gene")
res_moor_house
```

    ## # A tibble: 1,548 × 7
    ##    Virus               baseMean estimate stderror statistic   p.value p.adjusted
    ##    <chr>                  <dbl>    <dbl>    <dbl>     <dbl>     <dbl>      <dbl>
    ##  1 BAr1A1B1C_vRhyme_u…   737.     -1.86     0.799     6.33  NA          NA      
    ##  2 LASCr2D2E2F_vRhyme…    63.8    -1.65     0.792     4.52   1.04e- 1    1.59e-1
    ##  3 MGr2D2E2F_vRhyme_u…    13.5     1.67     0.898     4.49   1.06e- 1    1.61e-1
    ##  4 SEr3G3H3I_vRhyme_u…     4.53   -0.743    0.912     0.805  6.69e- 1    7.42e-1
    ##  5 LASCr2D2E2F_vRhyme…   375.     -2.79     0.872    42.2    6.85e-10    1.17e-8
    ##  6 LASCr2D2E2F_vRhyme…    74.7    -2.75     0.979    11.2    3.62e- 3    8.40e-3
    ##  7 BAr3G3H3I_vRhyme_u…    66.9    -4.00     1.27     18.4   NA          NA      
    ##  8 MGr1A1B1C_vRhyme_u…    12.6    -5.38     2.06      8.82  NA          NA      
    ##  9 SEr3G3H3I_vRhyme_u…     5.07    1.44     0.912     3.85   1.46e- 1    2.13e-1
    ## 10 MGr1A1B1C_vRhyme_u…    15.7     0.904    0.649     2.01   3.67e- 1    4.57e-1
    ## # ℹ 1,538 more rows
…
### DESeq

``` r
metadata_stean <- subset(metadata, site=="Stean")
dds_stean <- DESeqDataSetFromMatrix(countData = virus_genome_counts %>%
                                         select(all_of(rownames(metadata_stean))),
                                       colData = metadata_stean,
                                       design =  ~ treatment)
dds_stean <- DESeq(dds_stean, test = "LRT", reduced = ~1)
res_stean <- results(dds_stean) %>% tidy() %>% dplyr::rename("Virus" = "gene")
res_stean
```

    ## # A tibble: 1,548 × 7
    ##    Virus                baseMean estimate stderror statistic  p.value p.adjusted
    ##    <chr>                   <dbl>    <dbl>    <dbl>     <dbl>    <dbl>      <dbl>
    ##  1 BAr1A1B1C_vRhyme_un…  2108.    -0.630     0.670   0.877    0.349      0.535  
    ##  2 LASCr2D2E2F_vRhyme_…   102.    -0.199     0.893   0.0498   0.823      0.906  
    ##  3 MGr2D2E2F_vRhyme_un…    24.6   -2.56      1.00    6.18     0.0129     0.0440 
    ##  4 SEr3G3H3I_vRhyme_un…   158.    -2.08      0.955   4.40     0.0359     0.0958 
    ##  5 LASCr2D2E2F_vRhyme_…  1363.     3.72      1.05   10.2      0.00142    0.00697
    ##  6 LASCr2D2E2F_vRhyme_…    15.7   -0.822     0.743   1.22     0.269      0.443  
    ##  7 BAr3G3H3I_vRhyme_un…     6.91  -1.01      0.824   1.59     0.207      0.372  
    ##  8 MGr1A1B1C_vRhyme_un…     1.50   0.0973    1.15    0.00823  0.928      0.960  
    ##  9 SEr3G3H3I_vRhyme_un…   103.    -3.88      1.39    6.28    NA         NA      
    ## 10 MGr1A1B1C_vRhyme_un…    37.0   -1.32      0.890   2.16     0.142      0.280  
    ## # ℹ 1,538 more rows
…
