…
    # Add Kruskal-Wallis results to Dunn's test dataframe
    dunn_test <- dunn_test %>%
      mutate(KW_statistic = kruskal_test$statistic,  # H value
             KW_p_value = kruskal_test$p.value)      # p-value
    
    dunn_test
  })
results
```

    ## # A tibble: 22 × 8
    ## # Groups:   site [8]
    ##    site          Z P.unadj   P.adj treatment1 treatment2 KW_statistic KW_p_value
    ##    <fct>     <dbl>   <dbl>   <dbl> <chr>      <chr>             <dbl>      <dbl>
    ##  1 Balmo… -0.350   7.27e-1 1   e+0 Damaged    Natural           0.705   0.703   
    ##  2 Balmo… -0.0254  9.80e-1 9.80e-1 Damaged    Restored          0.705   0.703   
    ##  3 Balmo…  0.805   4.21e-1 1   e+0 Natural    Restored          0.705   0.703   
    ##  4 Bowne…  3.72    2.01e-4 6.03e-4 Damaged    Natural          14.6     0.000686
    ##  5 Bowne…  2.80    5.04e-3 7.56e-3 Damaged    Restored         14.6     0.000686
    ##  6 Bowne… -1.06    2.89e-1 2.89e-1 Natural    Restored         14.6     0.000686
    ##  7 Croca…  1.78    7.48e-2 2.24e-1 Damaged    Natural           4.19    0.123   
    ##  8 Croca… -0.00714 9.94e-1 9.94e-1 Damaged    Restored          4.19    0.123   
    ##  9 Croca… -1.77    7.66e-2 1.15e-1 Natural    Restored          4.19    0.123   
    ## 10 Langw… -0.594   5.52e-1 8.28e-1 Damaged    Natural           0.513   0.774   
    ## # ℹ 12 more rows
…
    # Add Kruskal-Wallis results to Dunn's test dataframe
    dunn_test <- dunn_test %>%
      mutate(KW_statistic = kruskal_test$statistic,  # H value
             KW_p_value = kruskal_test$p.value)      # p-value
    
    dunn_test
  })
results_norm
```

    ## # A tibble: 21 × 8
    ## # Groups:   site [7]
    ##    site          Z P.unadj   P.adj treatment1 treatment2 KW_statistic KW_p_value
    ##    <fct>     <dbl>   <dbl>   <dbl> <chr>      <chr>             <dbl>      <dbl>
    ##  1 Balmoral  4.16  3.20e-5 9.60e-5 Damaged    Natural           26.0     2.25e-6
    ##  2 Balmoral  2.68  7.29e-3 7.29e-3 Damaged    Restored          26.0     2.25e-6
    ##  3 Balmoral -3.51  4.46e-4 6.69e-4 Natural    Restored          26.0     2.25e-6
    ##  4 Bowness   4.32  1.57e-5 2.35e-5 Damaged    Natural           27.8     9.04e-7
    ##  5 Bowness   4.93  8.10e-7 2.43e-6 Damaged    Restored          27.8     9.04e-7
    ##  6 Bowness   0.535 5.93e-1 5.93e-1 Natural    Restored          27.8     9.04e-7
    ##  7 Crocach  -0.788 4.31e-1 4.31e-1 Damaged    Natural            7.51    2.34e-2
    ##  8 Crocach   1.91  5.68e-2 8.51e-2 Damaged    Restored           7.51    2.34e-2
    ##  9 Crocach   2.66  7.76e-3 2.33e-2 Natural    Restored           7.51    2.34e-2
    ## 10 Langwell  3.24  1.21e-3 1.81e-3 Damaged    Natural           31.8     1.25e-7
    ## # ℹ 11 more rows
…
## Combine the KW adn Dunn test results

``` r
results_KW_Dunn_combined <- rbind(
  results_norm %>%
    mutate(Data = "normalized"),
  results %>%
    filter(site != "Stean") %>%
    mutate(Data = "non-normalized")
)
results_KW_Dunn_combined
```

    ## # A tibble: 42 × 9
    ## # Groups:   site [7]
    ##    site          Z P.unadj   P.adj treatment1 treatment2 KW_statistic KW_p_value
    ##    <fct>     <dbl>   <dbl>   <dbl> <chr>      <chr>             <dbl>      <dbl>
    ##  1 Balmoral  4.16  3.20e-5 9.60e-5 Damaged    Natural           26.0     2.25e-6
    ##  2 Balmoral  2.68  7.29e-3 7.29e-3 Damaged    Restored          26.0     2.25e-6
    ##  3 Balmoral -3.51  4.46e-4 6.69e-4 Natural    Restored          26.0     2.25e-6
    ##  4 Bowness   4.32  1.57e-5 2.35e-5 Damaged    Natural           27.8     9.04e-7
    ##  5 Bowness   4.93  8.10e-7 2.43e-6 Damaged    Restored          27.8     9.04e-7
    ##  6 Bowness   0.535 5.93e-1 5.93e-1 Natural    Restored          27.8     9.04e-7
    ##  7 Crocach  -0.788 4.31e-1 4.31e-1 Damaged    Natural            7.51    2.34e-2
    ##  8 Crocach   1.91  5.68e-2 8.51e-2 Damaged    Restored           7.51    2.34e-2
    ##  9 Crocach   2.66  7.76e-3 2.33e-2 Natural    Restored           7.51    2.34e-2
    ## 10 Langwell  3.24  1.21e-3 1.81e-3 Damaged    Natural           31.8     1.25e-7
    ## # ℹ 32 more rows
    ## # ℹ 1 more variable: Data <chr>
…
  filter(`Host Family` != "Unknown") %>%
  group_by(Label, Sample, treatment, site) %>%
  summarize(total_virus_abundance = sum(Virus_Abundance),
            total_host_abundance = sum(Host_Abundance),
            ratio_of_totals = total_virus_abundance/total_host_abundance,
            mean_ratio = mean(virus_host_ratio, na.rm = TRUE),
            sd_ratio = sd(virus_host_ratio, na.rm = TRUE),
            n = n(),
            se_ratio = sd_ratio / sqrt(n),
            ) %>%
  ungroup()
virus_host_abundance_indiv_summary
```

    ## # A tibble: 938 × 11
    ##    Label       Sample treatment site  total_virus_abundance total_host_abundance
    ##    <chr>       <chr>  <fct>     <chr>                 <dbl>                <dbl>
    ##  1 A; Thermop… LABRr… Natural   Lang…                  2.87                 2.80
    ##  2 A; Thermop… LABRr… Natural   Lang…                  1.73                 1.75
    ##  3 A; Thermop… LABRr… Natural   Lang…                  1.08                 1.37
    ##  4 A; Thermop… LASCr… Restored  Lang…                  3.12                 2.70
    ##  5 A; Thermop… LASCr… Restored  Lang…                  2.06                 2.08
    ##  6 A; Thermop… LASCr… Restored  Lang…                  1.58                 1.38
    ##  7 A; Thermop… MGr1A  Natural   Mign…                  9.50                10.0 
    ##  8 A; Thermop… MGr1B  Natural   Mign…                  6.07                 7.05
    ##  9 A; Thermop… MGr1C  Natural   Mign…                  3.44                 3.80
    ## 10 A; Thermop… MGr2D  Restored  Mign…                  6.95                10.1 
    ## # ℹ 928 more rows
    ## # ℹ 5 more variables: ratio_of_totals <dbl>, mean_ratio <dbl>, sd_ratio <dbl>,
    ## #   n <int>, se_ratio <dbl>
…
